{
  "name": "Educación Física II",
  "image": "portada.jpg",
  "temas": [
    {
      "tema": "Introducción",
      "subtemas": [      
        {
          "tema": "UAC III",
          "url": "index.html"
        },
        {
          "tema": "Multidisciplinariedad",
          "url": "multidisciplinariedad.html"
        },
        {
          "tema": "Evaluación diagnóstica",
          "url": "evaluacion_diagnostica.html"
        },
        {
          "tema": "Situación de aprendizaje",
          "url": "situacion_de_aprendizaje.html"
        },
        {
          "tema": "Situación en contexto",
          "url": "situacion_en_contexto.html"
        }
      ]
    },
    {
      "tema": "La rueda de alimentos y las necesidades energéticas",
      "subtemas": [
        {
          "tema": "La rueda de los alimentos",
          "url": "tema1.0.0.html"
        },
        {
          "tema": "Hábitos alimenticios que contribuyen al cuidado de mi cuerpo",
          "url": "tema1.1.0.html"
        },
        {
          "tema": "Alimentos que debo evitar consumir",
          "url": "tema1.2.0.html"
        },
        {
          "tema": "Actividad 1",
          "url": "tema1.2.0A1.html"
        },
        {
          "tema": "Alimentación y rendimiento físico",
          "url": "tema1.3.0.html"
        },
        {
          "tema": "Progresión y aumento gradual de la actividad física",
          "url": "tema1.4.0.html"
        },
        {
          "tema": "Actividad 2",
          "url": "tema1.4.0A2.html"
        },
        {
          "tema": "Actividad 3",
          "url": "tema1.4.0A3.html"
        },
        {
          "tema": "Actividad DHS",
          "url": "tema1.4.0A3_dhs.html"
        }
      ]
    },
    {
      "tema": "Estilo de vida saludable",
      "subtemas": [
        {
          "tema": "Tipos de alimentación",
          "url": "tema2.0.0.html"
        },
        {
          "tema": "Actividad 4",
          "url": "tema2.0.0A4.html"
        },
        {
          "tema": "Actividad 5",
          "url": "tema2.0.0A5.html"
        },
        {
          "tema": "Hábitos saludables como parte del desarrollo integral del ser humano",
          "url": "tema2.1.0.html"
        },
        {
          "tema": "Progreso y aumento gradual de mi actividad física",
          "url": "tema2.2.0.html"
        },
        {
          "tema": "Actividad 6",
          "url": "tema2.2.0A6.html"
        },
        {
          "tema": "Actividad 7",
          "url": "tema2.2.0A7.html"
        },
        {
          "tema": "Actividad multidisciplinar",
          "url": "tema2.2.0A7_actividad_multidisciplinar.html"
        },
        {
          "tema": "Actividad DHS",
          "url": "tema2.2.0A7_dhs.html"
        },
        {
          "tema": "Fomento a la lectura",
          "url": "tema2.2.0A7_lectura.html"
        },
        {
          "tema": "Oriéntate",
          "url": "tema2.2.0A7_orientate.html"
        },
        {
          "tema": "Evaluación de situación de aprendizaje",
          "url": "tema2.2.0A7_situacion_de_aprendizaje.html"
        },
        {
          "tema": "Evaluación objetiva",
          "url": "tema2.2.1_evaluacion_objetiva.html"
        },
        {
          "tema": "Metacognición",
          "url": "tema2.2.1_metacognicion.html"
        },
        {
          "tema": "Evaluación de saberes",
          "url": "tema2.2.2_evaluacion_de_saberes.html"
        },
        {
          "tema": "Prueba tipo PLANEA",
          "url": "tema2.2.2_prueba_planea.html"
        },
        {
          "tema": "Bibliografía",
          "url": "bibliografia.html"
        }
      ]
    }
  ]
}