{
  "name": "Educación Física II",
  "image": "portada.jpg",
  "temas": [
    {
      "tema": "Introducción",
      "subtemas": [
        {
          "tema": "Legal",
          "url": "legal.html"
        },
        {
          "tema": "Presentación",
          "url": "presentacion.html"
        },       
        {
          "tema": "UAC I",
          "url": "index.html"
        },
        {
          "tema": "Multidisciplinariedad",
          "url": "multidisciplinariedad.html"
        },
        {
          "tema": "Evaluación diagnóstica",
          "url": "evaluacion_diagnostica.html"
        },
        {
          "tema": "Situación de aprendizaje",
          "url": "situacion_de_aprendizaje.html"
        },
        {
          "tema": "Situación en contexto",
          "url": "situacion_en_contexto.html"
        }
      ]
    },
    {
      "tema": "La rueda de los alimentos y las necesidades energéticas",
      "subtemas": [
        {
          "tema": "La rueda de los alimentos y las necesidades energéticas",
          "url": "tema1.0.0.html"
        },
         {
          "tema": "Actividad 1",
          "url": "tema1.0.0A1.html"
        },
         {
          "tema": "La rueda de los alimentos",
          "url": "tema1.1.0.html"
        },
         {
          "tema": "Actividad 2",
          "url": "tema1.1.0A2.html"
        },
        {
          "tema": "Actividad DHS",
          "url": "tema1.1.0A2_dhs.html"
        }
      ]
    },
    {
      "tema": "Estilo de vida saludable",
      "subtemas": [
        {
          "tema": "Alimentación y cuidado del cuerpo",
          "url": "tema2.0.0.html"
        },
        {
          "tema": "Dieta variada y equilibrada",
          "url": "tema2.1.0.html"
        },
        {
          "tema": "Actividad 3",
          "url": "tema2.1.0A3.html"
        }
      ]
    },
    {
      "tema": "El clima, horario y salud",
      "subtemas": [
        {
          "tema": "Ejercicio en espacios abiertos",
          "url": "tema3.0.0.html"
        },
        {
          "tema": "La importancia del cuidado de la salud",
          "url": "tema3.1.0.html"
        },
        {
          "tema": "Capacidades físicas condicionales y coordinativas",
          "url": "tema3.2.0.html"
        },
        {
          "tema": "Realizo actividad física",
          "url": "tema3.3.0.html"
        },
        {
          "tema": "Actividad 4",
          "url": "tema3.3.0A4.html"
        },
        {
          "tema": "Actividad multidisciplinar",
          "url": "tema3.3.0A4_actividad_multidisciplinar.html"
        },
        {
          "tema": "Actividad DHS",
          "url": "tema3.3.0A4_dhs.html"
        },
        {
          "tema": "Fomento a la lectura",
          "url": "tema3.3.0A4_lectura.html"
        },
        {
          "tema": "Oriéntate",
          "url": "tema3.3.0A4_orientate.html"
        },
        {
          "tema": "Evaluación de situación de aprendizaje",
          "url": "tema3.3.0A4_situacion_de_aprendizaje.html"
        },
        {
          "tema": "Evaluación objetiva",
          "url": "tema3.3.1_evaluacion_objetiva.html"
        },
        {
          "tema": "Metacognición",
          "url": "tema3.3.1_metacognicion.html"
        },
        {
          "tema": "Evaluación de saberes",
          "url": "tema3.3.2_evaluacion_de_saberes.html"
        },
        {
          "tema": "Prueba tipo PLANEA",
          "url": "tema3.3.2_prueba_planea.html"
        }
      ]
    }
  ]
}